%YAML 1.1
%TAG !u! tag:unity3d.com,2011:
--- !u!1001 &3464236806379506874
PrefabInstance:
  m_ObjectHideFlags: 0
  serializedVersion: 2
  m_Modification:
    serializedVersion: 3
    m_TransformParent: {fileID: 0}
    m_Modifications:
    - target: {fileID: 5401972681186859721, guid: 750e3c6876a501e42b5827ec7a3d24d1,
        type: 3}
      propertyPath: m_Name
      value: Shop Keeper
      objectReference: {fileID: 0}
    - target: {fileID: 8196697675836667564, guid: 750e3c6876a501e42b5827ec7a3d24d1,
        type: 3}
      propertyPath: m_RootOrder
      value: 0
      objectReference: {fileID: 0}
    - target: {fileID: 8196697675836667564, guid: 750e3c6876a501e42b5827ec7a3d24d1,
        type: 3}
      propertyPath: m_LocalPosition.x
      value: 0
      objectReference: {fileID: 0}
    - target: {fileID: 8196697675836667564, guid: 750e3c6876a501e42b5827ec7a3d24d1,
        type: 3}
      propertyPath: m_LocalPosition.y
      value: 0
      objectReference: {fileID: 0}
    - target: {fileID: 8196697675836667564, guid: 750e3c6876a501e42b5827ec7a3d24d1,
        type: 3}
      propertyPath: m_LocalPosition.z
      value: 0
      objectReference: {fileID: 0}
    - target: {fileID: 8196697675836667564, guid: 750e3c6876a501e42b5827ec7a3d24d1,
        type: 3}
      propertyPath: m_LocalRotation.w
      value: 1
      objectReference: {fileID: 0}
    - target: {fileID: 8196697675836667564, guid: 750e3c6876a501e42b5827ec7a3d24d1,
        type: 3}
      propertyPath: m_LocalRotation.x
      value: 0
      objectReference: {fileID: 0}
    - target: {fileID: 8196697675836667564, guid: 750e3c6876a501e42b5827ec7a3d24d1,
        type: 3}
      propertyPath: m_LocalRotation.y
      value: 0
      objectReference: {fileID: 0}
    - target: {fileID: 8196697675836667564, guid: 750e3c6876a501e42b5827ec7a3d24d1,
        type: 3}
      propertyPath: m_LocalRotation.z
      value: 0
      objectReference: {fileID: 0}
    - target: {fileID: 8196697675836667564, guid: 750e3c6876a501e42b5827ec7a3d24d1,
        type: 3}
      propertyPath: m_LocalEulerAnglesHint.x
      value: 0
      objectReference: {fileID: 0}
    - target: {fileID: 8196697675836667564, guid: 750e3c6876a501e42b5827ec7a3d24d1,
        type: 3}
      propertyPath: m_LocalEulerAnglesHint.y
      value: 0
      objectReference: {fileID: 0}
    - target: {fileID: 8196697675836667564, guid: 750e3c6876a501e42b5827ec7a3d24d1,
        type: 3}
      propertyPath: m_LocalEulerAnglesHint.z
      value: 0
      objectReference: {fileID: 0}
    m_RemovedComponents:
    - {fileID: 3125957438692005694, guid: 750e3c6876a501e42b5827ec7a3d24d1, type: 3}
    m_RemovedGameObjects: []
    m_AddedGameObjects:
    - targetCorrespondingSourceObject: {fileID: 8196697675836667564, guid: 750e3c6876a501e42b5827ec7a3d24d1,
        type: 3}
      insertIndex: -1
      addedObject: {fileID: 6536710572511103793}
    m_AddedComponents:
    - targetCorrespondingSourceObject: {fileID: 5401972681186859721, guid: 750e3c6876a501e42b5827ec7a3d24d1,
        type: 3}
      insertIndex: -1
      addedObject: {fileID: 6316729052562199258}
    - targetCorrespondingSourceObject: {fileID: 5401972681186859721, guid: 750e3c6876a501e42b5827ec7a3d24d1,
        type: 3}
      insertIndex: -1
      addedObject: {fileID: 8205975171699169539}
    - targetCorrespondingSourceObject: {fileID: 5401972681186859721, guid: 750e3c6876a501e42b5827ec7a3d24d1,
        type: 3}
      insertIndex: -1
      addedObject: {fileID: 7820216314816822302}
  m_SourcePrefab: {fileID: 100100000, guid: 750e3c6876a501e42b5827ec7a3d24d1, type: 3}
--- !u!4 &4743403245820852758 stripped
Transform:
  m_CorrespondingSourceObject: {fileID: 8196697675836667564, guid: 750e3c6876a501e42b5827ec7a3d24d1,
    type: 3}
  m_PrefabInstance: {fileID: 3464236806379506874}
  m_PrefabAsset: {fileID: 0}
--- !u!1 &8855440868402026099 stripped
GameObject:
  m_CorrespondingSourceObject: {fileID: 5401972681186859721, guid: 750e3c6876a501e42b5827ec7a3d24d1,
    type: 3}
  m_PrefabInstance: {fileID: 3464236806379506874}
  m_PrefabAsset: {fileID: 0}
--- !u!136 &6316729052562199258
CapsuleCollider:
  m_ObjectHideFlags: 0
  m_CorrespondingSourceObject: {fileID: 0}
  m_PrefabInstance: {fileID: 0}
  m_PrefabAsset: {fileID: 0}
  m_GameObject: {fileID: 8855440868402026099}
  m_Material: {fileID: 0}
  m_IncludeLayers:
    serializedVersion: 2
    m_Bits: 0
  m_ExcludeLayers:
    serializedVersion: 2
    m_Bits: 0
  m_LayerOverridePriority: 0
  m_IsTrigger: 0
  m_ProvidesContacts: 0
  m_Enabled: 1
  serializedVersion: 2
  m_Radius: 0.5
  m_Height: 2
  m_Direction: 1
  m_Center: {x: 0, y: 1, z: 0}
--- !u!114 &8205975171699169539
MonoBehaviour:
  m_ObjectHideFlags: 0
  m_CorrespondingSourceObject: {fileID: 0}
  m_PrefabInstance: {fileID: 0}
  m_PrefabAsset: {fileID: 0}
  m_GameObject: {fileID: 8855440868402026099}
  m_Enabled: 1
  m_EditorHideFlags: 0
  m_Script: {fileID: 11500000, guid: e586c37b47df8254d809c0cadc74291e, type: 3}
  m_Name: 
  m_EditorClassIdentifier: 
  shopName: 
  sellingPercentage: 50
  maximumBarterDiscount: 80
  stockConfig: []
--- !u!114 &7820216314816822302
MonoBehaviour:
  m_ObjectHideFlags: 0
  m_CorrespondingSourceObject: {fileID: 0}
  m_PrefabInstance: {fileID: 0}
  m_PrefabAsset: {fileID: 0}
  m_GameObject: {fileID: 8855440868402026099}
  m_Enabled: 1
  m_EditorHideFlags: 0
  m_Script: {fileID: 11500000, guid: 6164c691a7144ae8a1f03864550b778f, type: 3}
  m_Name: 
  m_EditorClassIdentifier: 
  uniqueIdentifier: 
--- !u!1001 &6536710572511473195
PrefabInstance:
  m_ObjectHideFlags: 0
  serializedVersion: 2
  m_Modification:
    serializedVersion: 3
    m_TransformParent: {fileID: 4743403245820852758}
    m_Modifications:
    - target: {fileID: 191330, guid: 679ff741e12a7e740819ede24a7000b7, type: 3}
      propertyPath: m_Name
      value: Character_Knights_Soldier_02
      objectReference: {fileID: 0}
    - target: {fileID: 435482, guid: 679ff741e12a7e740819ede24a7000b7, type: 3}
      propertyPath: m_RootOrder
      value: 2
      objectReference: {fileID: 0}
    - target: {fileID: 435482, guid: 679ff741e12a7e740819ede24a7000b7, type: 3}
      propertyPath: m_LocalPosition.x
      value: 0
      objectReference: {fileID: 0}
    - target: {fileID: 435482, guid: 679ff741e12a7e740819ede24a7000b7, type: 3}
      propertyPath: m_LocalPosition.y
      value: 0
      objectReference: {fileID: 0}
    - target: {fileID: 435482, guid: 679ff741e12a7e740819ede24a7000b7, type: 3}
      propertyPath: m_LocalPosition.z
      value: 0
      objectReference: {fileID: 0}
    - target: {fileID: 435482, guid: 679ff741e12a7e740819ede24a7000b7, type: 3}
      propertyPath: m_LocalRotation.w
      value: 1
      objectReference: {fileID: 0}
    - target: {fileID: 435482, guid: 679ff741e12a7e740819ede24a7000b7, type: 3}
      propertyPath: m_LocalRotation.x
      value: 0
      objectReference: {fileID: 0}
    - target: {fileID: 435482, guid: 679ff741e12a7e740819ede24a7000b7, type: 3}
      propertyPath: m_LocalRotation.y
      value: 0
      objectReference: {fileID: 0}
    - target: {fileID: 435482, guid: 679ff741e12a7e740819ede24a7000b7, type: 3}
      propertyPath: m_LocalRotation.z
      value: 0
      objectReference: {fileID: 0}
    - target: {fileID: 435482, guid: 679ff741e12a7e740819ede24a7000b7, type: 3}
      propertyPath: m_LocalEulerAnglesHint.x
      value: 0
      objectReference: {fileID: 0}
    - target: {fileID: 435482, guid: 679ff741e12a7e740819ede24a7000b7, type: 3}
      propertyPath: m_LocalEulerAnglesHint.y
      value: 0
      objectReference: {fileID: 0}
    - target: {fileID: 435482, guid: 679ff741e12a7e740819ede24a7000b7, type: 3}
      propertyPath: m_LocalEulerAnglesHint.z
      value: 0
      objectReference: {fileID: 0}
    - target: {fileID: 13707166, guid: 679ff741e12a7e740819ede24a7000b7, type: 3}
      propertyPath: m_Materials.Array.data[0]
      value: 
      objectReference: {fileID: 2100000, guid: ccae2dc6cf6f0c4479b782fedd0c8172, type: 2}
    m_RemovedComponents: []
    m_RemovedGameObjects: []
    m_AddedGameObjects: []
    m_AddedComponents: []
  m_SourcePrefab: {fileID: 100100000, guid: 679ff741e12a7e740819ede24a7000b7, type: 3}
--- !u!4 &6536710572511103793 stripped
Transform:
  m_CorrespondingSourceObject: {fileID: 435482, guid: 679ff741e12a7e740819ede24a7000b7,
    type: 3}
  m_PrefabInstance: {fileID: 6536710572511473195}
  m_PrefabAsset: {fileID: 0}
