%YAML 1.1
%TAG !u! tag:unity3d.com,2011:
--- !u!114 &11400000
MonoBehaviour:
  m_ObjectHideFlags: 0
  m_CorrespondingSourceObject: {fileID: 0}
  m_PrefabInstance: {fileID: 0}
  m_PrefabAsset: {fileID: 0}
  m_GameObject: {fileID: 0}
  m_Enabled: 1
  m_EditorHideFlags: 0
  m_Script: {fileID: 11500000, guid: d809f61ba5274cfc8c9e104f241cfa86, type: 3}
  m_Name: SS Slash 4
  m_EditorClassIdentifier: 
  <AnimationName>k__BackingField: SS Slash 4 Root
  <ApplyRootMotion>k__BackingField: 0
  damageModifier: 2
  transitionDuration: 0.1
  <NextComboAttack>k__BackingField: {fileID: 0}
  comboAttackTime: 0.525
  attackForce: 7.8
