%YAML 1.1
%TAG !u! tag:unity3d.com,2011:
--- !u!114 &11400000
MonoBehaviour:
  m_ObjectHideFlags: 0
  m_CorrespondingSourceObject: {fileID: 0}
  m_PrefabInstance: {fileID: 0}
  m_PrefabAsset: {fileID: 0}
  m_GameObject: {fileID: 0}
  m_Enabled: 1
  m_EditorHideFlags: 0
  m_Script: {fileID: 11500000, guid: f2591c982fc81e940845bedeabeb30af, type: 3}
  m_Name: Bow Red Projectile
  m_EditorClassIdentifier: 
  itemID: 7f8ab35d-6fd6-42b0-9725-0121288138e4
  displayName: Magic Homing Bow
  description: 
  icon: {fileID: 21300000, guid: f8078c2bb5ee88d4a9472f76e501e0f3, type: 3}
  pickup: {fileID: 3115390311295392399, guid: ac69203953cc455488ca93485a71e0f9, type: 3}
  stackable: 0
  price: 200
  category: 2
  allowedEquipLocation: 5
  equipCondition:
    and: []
  animatorWeaponType: 0
  equippedPrefab: {fileID: 9173292970485315076, guid: ad020399ab7238a4ca625ce5af50e3d0,
    type: 3}
  weaponDamage: 0
  percentageBonus: 0
  weaponRange: 20
  targetingRange: 25
  isRightHanded: 0
  projectile: {fileID: 1238982805748449321, guid: 99598503be557804ea429131ed35df20,
    type: 3}
  <Attacks>k__BackingField:
  - {fileID: 11400000, guid: 720a9025c140d7041901c5c3a1a64dff, type: 2}
