%YAML 1.1
%TAG !u! tag:unity3d.com,2011:
--- !u!114 &11400000
MonoBehaviour:
  m_ObjectHideFlags: 0
  m_CorrespondingSourceObject: {fileID: 0}
  m_PrefabInstance: {fileID: 0}
  m_PrefabAsset: {fileID: 0}
  m_GameObject: {fileID: 0}
  m_Enabled: 1
  m_EditorHideFlags: 0
  m_Script: {fileID: 11500000, guid: f2591c982fc81e940845bedeabeb30af, type: 3}
  m_Name: Unarmed
  m_EditorClassIdentifier: 
  itemID: 8b23fd8a-f21f-49dd-9df4-6f88a0237a54
  displayName: 
  description: 
  icon: {fileID: 0}
  pickup: {fileID: 0}
  stackable: 0
  price: 0
  category: 2
  allowedEquipLocation: 5
  equipCondition:
    and: []
  animatorOverride: {fileID: 0}
  equippedPrefab: {fileID: 442137872338528657, guid: 8786ea0ff0548a84f927488b94467170,
    type: 3}
  weaponDamage: 2
  percentageBonus: 0
  weaponRange: 2
  isRightHanded: 1
  projectile: {fileID: 0}
  <Attacks>k__BackingField:
  - {fileID: 11400000, guid: 6d36ac95b84e59142a510bcfd94f58a3, type: 2}
  - {fileID: 11400000, guid: 9516294dc15d36b45884219153da0cbf, type: 2}
