%YAML 1.1
%TAG !u! tag:unity3d.com,2011:
--- !u!114 &11400000
MonoBehaviour:
  m_ObjectHideFlags: 0
  m_CorrespondingSourceObject: {fileID: 0}
  m_PrefabInstance: {fileID: 0}
  m_PrefabAsset: {fileID: 0}
  m_GameObject: {fileID: 0}
  m_Enabled: 1
  m_EditorHideFlags: 0
  m_Script: {fileID: 11500000, guid: f2591c982fc81e940845bedeabeb30af, type: 3}
  m_Name: Wooden Dagger
  m_EditorClassIdentifier: 
  itemID: 06937866-e68a-430c-ab01-b0c3c8906e95
  displayName: Wooden Dagger
  description: Better than your fists.
  icon: {fileID: 21300000, guid: d19901b0ee3c38743a7d383bd484b0b5, type: 3}
  pickup: {fileID: 743510599615345213, guid: 0715da6d594191c43a75bbdd035e8646, type: 3}
  stackable: 0
  price: 180
  category: 2
  allowedEquipLocation: 5
  equipCondition:
    and: []
  animatorOverride: {fileID: 22100000, guid: 6abe8133a41100b4695842c4b61fdb80, type: 2}
  animatorWeaponType: 1
  equippedPrefab: {fileID: 3344029822838983663, guid: 6d32b2d60860b254da195e77f71730e5,
    type: 3}
  weaponDamage: 5
  percentageBonus: 0
  weaponRange: 1
  isRightHanded: 1
  projectile: {fileID: 0}
  <Attacks>k__BackingField:
  - {fileID: 11400000, guid: fd4b1b2322ce690428303d0abd7bbd2d, type: 2}
